^K:\DOCUMENTS\SHADOWMAPPING\SHADOWMAPPING\CAMERA.CPP|K:\DOCUMENTS\SHADOWMAPPING\SHADOWMAPPING\D3DAPP.CPP|K:\DOCUMENTS\SHADOWMAPPING\SHADOWMAPPING\D3DUTIL.CPP|K:\DOCUMENTS\SHADOWMAPPING\SHADOWMAPPING\EFFECTS.CPP|K:\DOCUMENTS\SHADOWMAPPING\SHADOWMAPPING\GAMETIMER.CPP|K:\DOCUMENTS\SHADOWMAPPING\SHADOWMAPPING\GEOMETRYGENERATOR.CPP|K:\DOCUMENTS\SHADOWMAPPING\SHADOWMAPPING\LIGHTHELPER.CPP|K:\DOCUMENTS\SHADOWMAPPING\SHADOWMAPPING\LITSKULLDEMO.CPP|K:\DOCUMENTS\SHADOWMAPPING\SHADOWMAPPING\MATHHELPER.CPP|K:\DOCUMENTS\SHADOWMAPPING\SHADOWMAPPING\SHADOWMAP.CPP|K:\DOCUMENTS\SHADOWMAPPING\SHADOWMAPPING\TEXTUREMGR.CPP|K:\DOCUMENTS\SHADOWMAPPING\SHADOWMAPPING\VERTEX.CPP|K:\DOCUMENTS\SHADOWMAPPING\SHADOWMAPPING\WAVES.CPP|K:\DOCUMENTS\SHADOWMAPPING\SHADOWMAPPING\XNACOLLISION.CPP
K:\DOCUMENTS\SHADOWMAPPING\SHADOWMAPPING\DEBUG\VC120.PDB
K:\DOCUMENTS\SHADOWMAPPING\SHADOWMAPPING\DEBUG\VC120.IDB
K:\DOCUMENTS\SHADOWMAPPING\SHADOWMAPPING\DEBUG\CAMERA.OBJ
K:\DOCUMENTS\SHADOWMAPPING\SHADOWMAPPING\DEBUG\D3DAPP.OBJ
K:\DOCUMENTS\SHADOWMAPPING\SHADOWMAPPING\DEBUG\D3DUTIL.OBJ
K:\DOCUMENTS\SHADOWMAPPING\SHADOWMAPPING\DEBUG\EFFECTS.OBJ
K:\DOCUMENTS\SHADOWMAPPING\SHADOWMAPPING\DEBUG\GAMETIMER.OBJ
K:\DOCUMENTS\SHADOWMAPPING\SHADOWMAPPING\DEBUG\GEOMETRYGENERATOR.OBJ
K:\DOCUMENTS\SHADOWMAPPING\SHADOWMAPPING\DEBUG\LIGHTHELPER.OBJ
K:\DOCUMENTS\SHADOWMAPPING\SHADOWMAPPING\DEBUG\LITSKULLDEMO.OBJ
K:\DOCUMENTS\SHADOWMAPPING\SHADOWMAPPING\DEBUG\MATHHELPER.OBJ
K:\DOCUMENTS\SHADOWMAPPING\SHADOWMAPPING\DEBUG\SHADOWMAP.OBJ
K:\DOCUMENTS\SHADOWMAPPING\SHADOWMAPPING\DEBUG\TEXTUREMGR.OBJ
K:\DOCUMENTS\SHADOWMAPPING\SHADOWMAPPING\DEBUG\VERTEX.OBJ
K:\DOCUMENTS\SHADOWMAPPING\SHADOWMAPPING\DEBUG\WAVES.OBJ
K:\DOCUMENTS\SHADOWMAPPING\SHADOWMAPPING\DEBUG\XNACOLLISION.OBJ
^K:\DOCUMENTS\SHADOWMAPPING\SHADOWMAPPING\CAMERA.CPP
K:\DOCUMENTS\SHADOWMAPPING\SHADOWMAPPING\DEBUG\VC120.PDB
^K:\DOCUMENTS\SHADOWMAPPING\SHADOWMAPPING\D3DAPP.CPP
K:\DOCUMENTS\SHADOWMAPPING\SHADOWMAPPING\DEBUG\VC120.PDB
^K:\DOCUMENTS\SHADOWMAPPING\SHADOWMAPPING\D3DUTIL.CPP
K:\DOCUMENTS\SHADOWMAPPING\SHADOWMAPPING\DEBUG\VC120.PDB
^K:\DOCUMENTS\SHADOWMAPPING\SHADOWMAPPING\EFFECTS.CPP
K:\DOCUMENTS\SHADOWMAPPING\SHADOWMAPPING\DEBUG\VC120.PDB
^K:\DOCUMENTS\SHADOWMAPPING\SHADOWMAPPING\GAMETIMER.CPP
K:\DOCUMENTS\SHADOWMAPPING\SHADOWMAPPING\DEBUG\VC120.PDB
^K:\DOCUMENTS\SHADOWMAPPING\SHADOWMAPPING\GEOMETRYGENERATOR.CPP
K:\DOCUMENTS\SHADOWMAPPING\SHADOWMAPPING\DEBUG\VC120.PDB
^K:\DOCUMENTS\SHADOWMAPPING\SHADOWMAPPING\LIGHTHELPER.CPP
K:\DOCUMENTS\SHADOWMAPPING\SHADOWMAPPING\DEBUG\VC120.PDB
^K:\DOCUMENTS\SHADOWMAPPING\SHADOWMAPPING\LITSKULLDEMO.CPP
K:\DOCUMENTS\SHADOWMAPPING\SHADOWMAPPING\DEBUG\VC120.PDB
^K:\DOCUMENTS\SHADOWMAPPING\SHADOWMAPPING\MATHHELPER.CPP
K:\DOCUMENTS\SHADOWMAPPING\SHADOWMAPPING\DEBUG\VC120.PDB
^K:\DOCUMENTS\SHADOWMAPPING\SHADOWMAPPING\SHADOWMAP.CPP
K:\DOCUMENTS\SHADOWMAPPING\SHADOWMAPPING\DEBUG\VC120.PDB
^K:\DOCUMENTS\SHADOWMAPPING\SHADOWMAPPING\TEXTUREMGR.CPP
K:\DOCUMENTS\SHADOWMAPPING\SHADOWMAPPING\DEBUG\VC120.PDB
^K:\DOCUMENTS\SHADOWMAPPING\SHADOWMAPPING\VERTEX.CPP
K:\DOCUMENTS\SHADOWMAPPING\SHADOWMAPPING\DEBUG\VC120.PDB
^K:\DOCUMENTS\SHADOWMAPPING\SHADOWMAPPING\WAVES.CPP
K:\DOCUMENTS\SHADOWMAPPING\SHADOWMAPPING\DEBUG\VC120.PDB
^K:\DOCUMENTS\SHADOWMAPPING\SHADOWMAPPING\XNACOLLISION.CPP
K:\DOCUMENTS\SHADOWMAPPING\SHADOWMAPPING\DEBUG\VC120.PDB
