^K:\DOCUMENTS\SHADOWMAPPING\SHADOWMAPPING\FX\BASIC.FX
K:\DOCUMENTS\SHADOWMAPPING\SHADOWMAPPING\FX\BASIC.FXO
^K:\DOCUMENTS\SHADOWMAPPING\SHADOWMAPPING\FX\BUILDSHADOWMAP.FX
K:\DOCUMENTS\SHADOWMAPPING\SHADOWMAPPING\FX\BUILDSHADOWMAP.FXO
